Warung Kopi Biodiverskripsi: Eksplorasi Data Perjumpaan
…
chiropteraID<-occ_search(scientificName = "Chiroptera", country = "ID", limit=20)
name_suggest(q='Cynopterus', rank='species')

## # A tibble: 23 x 3
##        key canonicalName             rank   
##      <int> <chr>                     <chr>  
##  1 2432833 Cynopterus titthaecheilus SPECIES
##  2 8745739 Cynopterus albiventer     SPECIES
##  3 5787446 Cynopterus brachysoma     SPECIES
##  4 5787525 Cynopterus blanfordi      SPECIES
##  5 9212547 Cynopterus babi           SPECIES
##  6 4265710 Cynopterus minutus        SPECIES
##  7 4265693 Cynopterus luzoniensis    SPECIES
##  8 2432837 Cynopterus brachyotis     SPECIES
##  9 8905531 Cynopterus scherzeri      SPECIES
## 10 8849767 Cynopterus persimilis     SPECIES
## # ... with 13 more rows
…
## menghitung spesies per tahun
sulbatYear %>% group_by(year) %>% count(speciesname)

## # A tibble: 174 x 3
## # Groups:   year [19]
##     year speciesname               n
##    <int> <fct>                 <int>
##  1  1906 Pteropus pumilus          1
##  2  1914 Nyctimene cephalotes      3
##  3  1914 Phoniscus jagorii         1
##  4  1914 Rousettus celebensis      2
##  5  1914 Styloctenium wallacei     3
##  6  1914 Thoopterus nigrescens     3
##  7  1916 Emballonura alecto        6
##  8  1916 Megaderma spasma          3
##  9  1916 Myotis ater              10
## 10  1916 Pteropus alecto           2
## # ... with 164 more rows
…
Tapi, data tahun tidak tepat ditampilkan demikian karena akan menimbulkan persepsi distribusi kekayaan spesies yang berubah seiring waktu padahal ada bias pencuplikan. Kita ambil saja interval tahun yang cukup kontinu, yakni dari tahun 1972 sampai dengan 1976.

sulbatYear2<-sulbat %>% mutate(year=ifelse(year<1972|year>1976,NA,year))
sulbatYear2 %>% group_by(year) %>% count(speciesname)

## # A tibble: 119 x 3
## # Groups:   year [6]
##     year speciesname                    n
##    <int> <fct>                      <int>
##  1  1972 Cynopterus brachyotis          6
##  2  1972 Cynopterus luzoniensis         1
##  3  1972 Falsistrellus petersi          1
##  4  1972 Harpyionycteris celebensis     1
##  5  1972 Hipposideros galeritus         2
##  6  1972 Macroglossus minimus           1
##  7  1972 Miniopterus macrocneme         1
##  8  1972 Miniopterus tristis            2
##  9  1972 Rhinolophus euryotis           2
## 10  1972 Rousettus celebensis          77
## # ... with 109 more rows
…
